module x6t.io/goios

go 1.17

require github.com/docker/docker v20.10.12+incompatible

require (
	github.com/Microsoft/go-winio v0.5.1 // indirect
	github.com/containerd/containerd v1.6.0 // indirect
	github.com/docker/distribution v2.8.0+incompatible // indirect
	github.com/docker/go-connections v0.4.0 // indirect
	github.com/docker/go-units v0.4.0 // indirect
	github.com/gogo/protobuf v1.3.2 // indirect
	github.com/golang/protobuf v1.5.2 // indirect
	github.com/gorilla/mux v1.8.0 // indirect
	github.com/moby/term v0.0.0-20210619224110-3f7ff695adc6 // indirect
	github.com/opencontainers/go-digest v1.0.0 // indirect
	github.com/opencontainers/image-spec v1.0.2 // indirect
	github.com/pkg/errors v0.9.1 // indirect
	github.com/sirupsen/logrus v1.8.1 // indirect
	golang.org/x/mobile v0.0.0-20220224134551-8a0a1e50732f // indirect
	golang.org/x/net v0.0.0-20211216030914-fe4d6282115f // indirect
	golang.org/x/sys v0.0.0-20211216021012-1d35b9e2eb4e // indirect
	golang.org/x/time v0.0.0-20220224211638-0e9765cccd65 // indirect
	google.golang.org/genproto v0.0.0-20211208223120-3a66f561d7aa // indirect
	google.golang.org/grpc v1.44.0 // indirect
	google.golang.org/protobuf v1.27.1 // indirect
	gotest.tools/v3 v3.1.0 // indirect
)
